goal_code,goal_name,lower_is_better,difficulty,time_series,target_value,target_year
2-1-a,Stickstoffüberschuss der Landwirtschaft,true,hard,Moving five-year average shown for each middle year,70,2030
2-1-b,Landwirtschaftliche Fläche unter ökologischer Bewirtschaftung,false,hard,Data from the Federal Ministry of Food and Agriculture,30,2030
3-1-ab,Vorzeitige Sterblichkeit (Frauen),true,easy,Premature death (women),100,2030
3-1-ab,Vorzeitige Sterblichkeit (Männer),true,easy,Premature death (men),190,2030
3-1-cd,Anteil der rauchenden Erwachsenen,true,easy,Adults,19,2030
3-1-cd,Anteil der rauchenden Jugendlichen,true,easy,Adolescents,7,2030
3-2-a,Emissionen von Luftschadstoffen,true,hard,,55,2030
3-2-b,Feinstaubexposition oberhalb des WHO-Richtwerts im Jahresdurchschnitt,true,easy,,0,2030
3-3,Ausgaben bzw. Zusagen zur globalen Pandemieprävention und -reaktion,false,easy,Pandemic prevention and response,272.5,2030
4-1-a,Frühe Schulabgängerinnen und Schulabgänger,true,unknown,,9.5,2030
4-1-b,Akademisch Qualifizierte oder beruflich Höherqualifizierte,false,unknown,,55,2030
4-2-ab,Kinder in Ganztagsbetreuung in Tageseinrichtungen (0-2 Jahre),false,hard,All-day care provision for 0 to 2-year-old children,35,2030
4-2-ab,Kinder in Ganztagsbetreuung in Tageseinrichtungen (3-5 Jahre),false,hard,All-day care provision for 3 to 5-year-old children,35,2030
5-1-a,Unterschied zwischen den durchschnittlichen Bruttostundenverdiensten von Frauen und Männern,true,hard,,10,2030
5-1-bc,Anteil von Frauen in Aufsichtsräten börsennotierter Unternehmen,false,hard,On supervisory boards of listed and fully co-determined companies,30,2030
5-1-bc,Anteil von Frauen im öffentlichen Dienst des Bundes,false,easy,In management positions in the federal civil service,50,2030
5-1-d,"Anteil der Kinder, deren Väter Elterngeld bezogen haben",false,hard,,65,2030
6-1-a,"Anteil der Phosphor-Messstellen, an denen der Orientierungswert eingehalten wird",false,hard,,100,2030
6-1-b,"Anteil der Nitrat-Messstellen, an denen der Schwellenwert eingehalten wird",false,hard,,100,2030
7-1-ab,Endenergieproduktivität,false,hard,Final energy productivity,239,2030
7-2-a,Anteil erneuerbarer Energien (Erzeugung) am Brutto-Endenergieverbrauch,false,hard,,30,2030
7-2-a,Anteil erneuerbarer Energien (Erzeugung) am Brutto-Endenergieverbrauch,false,hard,,45,2040
7-2-a,Anteil erneuerbarer Energien (Erzeugung) am Brutto-Endenergieverbrauch,false,hard,,60,2050
7-2-b,Anteil des Stroms aus erneuerbaren Energiequellen am Bruttostromverbrauch,false,hard,,80,2030
8-1,Gesamtrohstoffproduktivität,false,hard,Raw material input productivity,160,2030
8-2-ab,Finanzierungssaldo des Staates,false,unknown,Government deficit,-3,2030
8-2-ab,Struktureller Finanzierungssaldo des Staates,false,unknown,Structural deficit,-0.5,2030
8-2-c,Schuldenstand im Verh. zum Bruttoinlandsprodukt in jeweiligen Preisen,true,unknown,,60,2030
8-5-ab,Erwerbstätigenquote,false,hard,"Employment rate, total (20 to 64-year-olds)",78,2030
9-1-a,Ausgaben für Forschung und Entwicklung (Anteil am BIP),false,easy,,3.5,2030
9-1-b-modified,Breitbandverfügbarkeit (Anteil aller Haushalte),false,hard,All wired technologies,100,2025
11-1-a,Anstieg der Siedlungs- und Verkehrsfläche,true,hard,Moving four-year average,30,2030
11-2-a,Endenergieverbrauch im Güterverkehr (Energie pro Tonnenkilometer),true,hard,Energy consumption per tonne-kilometre,85,2030
11-2-b,Endenergieverbrauch im Güterverkehr (Energie pro Passagierkilometer),true,hard,Energy consumption per passenger-kilometre,85,2030
11-3,"Anteil der Personen in Haushalten, welche mehr als 40 % ihres verfügbaren Einkommens für Wohnen ausgeben",true,unknown,,13,2030
11-4,"Anzahl der Objekte in der Deutschen Digitalen Bibliothek",false,unknown,,50,2030
12-1-a,Marktanteil von Produkten mit staatlichen Umweltzeichen,false,unknown,,34,2030
12-2,Einsatz des Umweltmanagementsystems EMAS (Anz. registrierter Organisationsstandorte),false,unknown,Locations of organisation registered with EMAS,5000,2030
12-3-ab,Nachhaltige öffentliche Beschaffung (Anteil Papier mit Blauem Engel am Gesamtpapierverbrauch der unmittelbaren Bundesverwaltung),false,easy,Paper bearing the Blue Angel label as a proportion of the total paper consumption of the direct federal administration,210.8,2030
13-1-a,Treibhausgasemissionen,true,hard,,35,2030
13-1-a,Treibhausgasemissionen,true,hard,,12,2040
13-1-a,Treibhausgasemissionen,true,hard,,0,2045
13-1-b,Deutsche Zahlungen vorrangig an Entwicklungs- und Schwellenländer zur Klimafinanzierung,false,easy,,6,2030
14-1-a,Gesamtstickstoffeintrag in der Nordsee über deutsche Zuflüsse,true,hard,Nitrogen input in coastal and marine waters of the North Sea,2.8,2030
14-1-a,Gesamtstickstoffeintrag in der Ostsee über deutsche Zuflüsse,true,hard,Nitrogen input in coastal and marine waters of the Baltic Sea,2.6,2030
14-1-b,Nachhaltig bewirtschaftete Fischbestände in Nord- und Ostsee,false,hard,Commercial exploited fish stocks assessed for MSY that is fished sustainably,100,2020
15-1,Bestand repräsentativer Vogelarten in verschiedenen Hauptlebensraum- und Landschaftstypen,false,hard,,100,2030
15-2,Ökosysteme mit Überschreitung der Belastungsgrenzen für Eutrophierung durch Stickstoffeinträge,true,hard,,52,2030
16-1,Erfasste Straftaten,true,easy,,6500,2030
16-2,"Anzahl weltweit durchgeführter Projekte Zerstörung von Kleinwaffen durch Deutschland",false,easy,,15,2030
17-1,Anteil der öffentlichen Entwicklungsausgaben am Bruttonationaleinkommen,false,easy,Calculated as net expenditure|Calculated in grant equivalents,0.7,2030
17-2,Studierende und Forschende aus Entwicklungs- und Schwellenländern in Deutschland,false,easy,,237000,2030
17-3,Einfuhren aus am wenigsten entwickelten Ländern (LDCs),false,easy,Imports,1.43,2030
